Thesis/Experiment_02B.csv

X,CH1,Start,Increment,
Sequence,Volt,5.044000e-04,1.000000e-07
0,-1.28e+00,
1,-1.28e+00,
2,-1.28e+00,
3,-1.28e+00,
4,-1.28e+00,
5,-1.28e+00,
6,-1.28e+00,
7,-1.28e+00,
8,-1.28e+00,
9,-1.28e+00,
10,-1.28e+00,
11,-1.28e+00,
12,-1.28e+00,
13,-1.28e+00,
14,-1.28e+00,
15,-1.28e+00,
16,-1.28e+00,
17,-1.28e+00,
18,-1.28e+00,
19,-1.28e+00,
20,-1.28e+00,
21,-1.28e+00,
22,-1.28e+00,
23,-1.28e+00,
24,-1.28e+00,
25,-1.28e+00,
26,-1.28e+00,
27,-1.28e+00,
28,-1.28e+00,
29,-1.28e+00,
30,-1.28e+00,
31,-1.28e+00,
32,-1.28e+00,
33,-1.28e+00,
34,-1.28e+00,
35,-1.28e+00,
36,-1.28e+00,
37,-1.28e+00,
38,-1.28e+00,
39,-1.28e+00,
40,-1.28e+00,
41,-1.28e+00,
42,-1.28e+00,
43,-1.28e+00,
44,-1.28e+00,
45,-1.28e+00,
46,-1.28e+00,
47,-1.28e+00,
48,-1.28e+00,
49,-1.28e+00,
50,-1.28e+00,
51,-1.28e+00,
52,-1.28e+00,
53,-1.28e+00,
54,-1.28e+00,
55,-1.28e+00,
56,-1.28e+00,
57,-1.28e+00,
58,-1.28e+00,
59,-1.28e+00,
60,-1.28e+00,
61,-1.28e+00,
62,-1.28e+00,
63,-1.28e+00,
64,-1.28e+00,
65,-1.28e+00,
66,-1.28e+00,
67,-1.28e+00,
68,-1.28e+00,
69,-1.28e+00,
70,-1.28e+00,
71,-1.28e+00,
72,-1.28e+00,
73,-1.28e+00,
74,-1.28e+00,
75,-1.28e+00,
76,-1.28e+00,
77,-1.28e+00,
78,-1.28e+00,
79,-1.28e+00,
80,-1.28e+00,
81,-3.88e+00,
82,-5.52e+00,
83,-2.84e+00,
84,-4.76e+00,
85,-3.40e+00,
86,-3.56e+00,
87,-4.46e+00,
88,-3.62e+00,
89,-4.20e+00,
90,-3.92e+00,
91,-4.40e+00,
92,-4.12e+00,
93,-4.36e+00,
94,-4.28e+00,
95,-4.50e+00,
96,-4.38e+00,
97,-4.56e+00,
98,-4.56e+00,
99,-4.38e+00,
100,-4.56e+00,
101,-4.34e+00,
102,-4.40e+00,
103,-4.18e+00,
104,-4.24e+00,
105,-4.02e+00,
106,-4.14e+00,
107,-3.98e+00,
108,-4.00e+00,
109,-3.82e+00,
110,-3.82e+00,
111,-3.88e+00,
112,-3.76e+00,
113,-3.94e+00,
114,-3.88e+00,
115,-4.00e+00,
116,-3.92e+00,
117,-4.10e+00,
118,-4.08e+00,
119,-4.30e+00,
120,-4.22e+00,
121,-4.40e+00,
122,-4.30e+00,
123,-4.46e+00,
124,-4.34e+00,
125,-4.46e+00,
126,-4.38e+00,
127,-4.48e+00,
128,-4.50e+00,
129,-4.18e+00,
130,-4.24e+00,
131,-4.02e+00,
132,-4.14e+00,
133,-3.94e+00,
134,-4.04e+00,
135,-3.88e+00,
136,-3.88e+00,
137,-4.00e+00,
138,-3.88e+00,
139,-4.00e+00,
140,-3.92e+00,
141,-4.14e+00,
142,-4.08e+00,
143,-4.20e+00,
144,-4.12e+00,
145,-4.36e+00,
146,-4.30e+00,
147,-4.46e+00,
148,-4.44e+00,
149,-4.60e+00,
150,-4.60e+00,
151,-4.44e+00,
152,-4.60e+00,
153,-4.38e+00,
154,-4.50e+00,
155,-4.38e+00,
156,-4.46e+00,
157,-4.34e+00,
158,-4.40e+00,
159,-4.24e+00,
160,-4.30e+00,
161,-4.18e+00,
162,-4.24e+00,
163,-4.08e+00,
164,-4.08e+00,
165,-4.18e+00,
166,-4.12e+00,
167,-4.30e+00,
168,-4.28e+00,
169,-4.46e+00,
170,-4.40e+00,
171,-4.60e+00,
172,-4.48e+00,
173,-4.66e+00,
174,-4.60e+00,
175,-4.76e+00,
176,-4.82e+00,
177,-4.70e+00,
178,-4.74e+00,
179,-4.82e+00,
180,-4.82e+00,
181,-4.66e+00,
182,-4.76e+00,
183,-4.58e+00,
184,-4.66e+00,
185,-4.50e+00,
186,-4.56e+00,
187,-4.44e+00,
188,-4.50e+00,
189,-4.40e+00,
190,-4.38e+00,
191,-4.50e+00,
192,-4.44e+00,
193,-4.56e+00,
194,-4.34e+00,
195,-4.76e+00,
196,-4.44e+00,
197,-4.72e+00,
198,-4.70e+00,
199,-4.86e+00,
200,-4.80e+00,
201,-4.96e+00,
202,-4.90e+00,
203,-5.02e+00,
204,-4.90e+00,
205,-5.02e+00,
206,-4.96e+00,
207,-4.84e+00,
208,-4.92e+00,
209,-4.74e+00,
210,-4.82e+00,
211,-4.70e+00,
212,-4.76e+00,
213,-4.60e+00,
214,-4.66e+00,
215,-4.54e+00,
216,-4.54e+00,
217,-4.66e+00,
218,-4.54e+00,
219,-4.72e+00,
220,-4.64e+00,
221,-4.80e+00,
222,-4.74e+00,
223,-4.92e+00,
224,-4.84e+00,
225,-5.02e+00,
226,-4.94e+00,
227,-5.08e+00,
228,-5.00e+00,
229,-5.12e+00,
230,-5.12e+00,
231,-5.00e+00,
232,-5.12e+00,
233,-4.96e+00,
234,-5.06e+00,
235,-4.90e+00,
236,-4.96e+00,
237,-4.80e+00,
238,-4.86e+00,
239,-4.70e+00,
240,-4.54e+00,
241,-4.86e+00,
242,-4.86e+00,
243,-4.54e+00,
244,-4.64e+00,
245,-4.76e+00,
246,-4.70e+00,
247,-4.82e+00,
248,-4.74e+00,
249,-4.92e+00,
250,-4.84e+00,
251,-4.96e+00,
252,-4.90e+00,
253,-5.02e+00,
254,-4.94e+00,
255,-5.08e+00,
256,-5.06e+00,
257,-4.94e+00,
258,-5.02e+00,
259,-4.90e+00,
260,-4.96e+00,
261,-4.74e+00,
262,-4.96e+00,
263,-4.64e+00,
264,-4.82e+00,
265,-4.58e+00,
266,-4.66e+00,
267,-4.54e+00,
268,-4.60e+00,
269,-4.50e+00,
270,-4.60e+00,
271,-4.54e+00,
272,-4.54e+00,
273,-4.66e+00,
274,-4.60e+00,
275,-4.72e+00,
276,-4.70e+00,
277,-4.82e+00,
278,-4.74e+00,
279,-4.82e+00,
280,-4.86e+00,
281,-4.74e+00,
282,-4.86e+00,
283,-4.76e+00,
284,-4.86e+00,
285,-4.70e+00,
286,-4.76e+00,
287,-4.64e+00,
288,-4.66e+00,
289,-4.54e+00,
290,-4.60e+00,
291,-4.44e+00,
292,-4.50e+00,
293,-4.38e+00,
294,-4.34e+00,
295,-4.44e+00,
296,-4.40e+00,
297,-4.34e+00,
298,-4.34e+00,
299,-4.44e+00,
300,-4.38e+00,
301,-4.50e+00,
302,-4.44e+00,
303,-4.56e+00,
304,-4.48e+00,
305,-4.60e+00,
306,-4.54e+00,
307,-4.60e+00,
308,-4.60e+00,
309,-4.50e+00,
310,-4.60e+00,
311,-4.44e+00,
312,-4.50e+00,
313,-4.34e+00,
314,-4.40e+00,
315,-4.28e+00,
316,-4.36e+00,
317,-4.18e+00,
318,-4.24e+00,
319,-4.12e+00,
320,-4.20e+00,
321,-4.08e+00,
322,-4.14e+00,
323,-4.08e+00,
324,-4.08e+00,
325,-4.20e+00,
326,-4.12e+00,
327,-4.24e+00,
328,-4.18e+00,
329,-4.30e+00,
330,-4.24e+00,
331,-4.36e+00,
332,-4.28e+00,
333,-4.40e+00,
334,-4.28e+00,
335,-4.40e+00,
336,-4.36e+00,
337,-4.28e+00,
338,-4.34e+00,
339,-4.22e+00,
340,-4.24e+00,
341,-4.08e+00,
342,-4.18e+00,
343,-4.02e+00,
344,-4.10e+00,
345,-3.98e+00,
346,-4.04e+00,
347,-3.98e+00,
348,-4.04e+00,
349,-3.94e+00,
350,-3.98e+00,
351,-4.08e+00,
352,-4.02e+00,
353,-4.14e+00,
354,-4.08e+00,
355,-4.14e+00,
356,-4.08e+00,
357,-4.24e+00,
358,-4.36e+00,
359,-4.12e+00,
360,-4.18e+00,
361,-4.30e+00,
362,-4.24e+00,
363,-4.18e+00,
364,-4.24e+00,
365,-4.12e+00,
366,-4.20e+00,
367,-4.08e+00,
368,-4.14e+00,
369,-4.02e+00,
370,-4.04e+00,
371,-3.98e+00,
372,-3.92e+00,
373,-4.04e+00,
374,-3.92e+00,
375,-4.00e+00,
376,-3.92e+00,
377,-4.04e+00,
378,-3.98e+00,
379,-4.14e+00,
380,-4.04e+00,
381,-4.20e+00,
382,-4.12e+00,
383,-4.24e+00,
384,-4.18e+00,
385,-4.30e+00,
386,-4.30e+00,
387,-4.22e+00,
388,-4.30e+00,
389,-4.22e+00,
390,-4.36e+00,
391,-4.24e+00,
392,-4.30e+00,
393,-4.12e+00,
394,-4.14e+00,
395,-4.08e+00,
396,-4.14e+00,
397,-4.04e+00,
398,-4.08e+00,
399,-4.14e+00,
400,-3.82e+00,
401,-4.24e+00,
402,-3.92e+00,
403,-4.24e+00,
404,-4.24e+00,
405,-4.08e+00,
406,-4.12e+00,
407,-4.30e+00,
408,-4.18e+00,
409,-4.36e+00,
410,-4.34e+00,
411,-4.40e+00,
412,-4.34e+00,
413,-4.46e+00,
414,-4.46e+00,
415,-4.34e+00,
416,-4.40e+00,
417,-4.28e+00,
418,-4.36e+00,
419,-4.28e+00,
420,-4.36e+00,
421,-4.28e+00,
422,-4.36e+00,
423,-4.24e+00,
424,-4.30e+00,
425,-4.18e+00,
426,-4.18e+00,
427,-4.30e+00,
428,-4.22e+00,
429,-4.36e+00,
430,-4.28e+00,
431,-4.40e+00,
432,-4.34e+00,
433,-4.46e+00,
434,-4.44e+00,
435,-4.56e+00,
436,-4.48e+00,
437,-4.60e+00,
438,-4.54e+00,
439,-4.66e+00,
440,-4.66e+00,
441,-4.58e+00,
442,-4.66e+00,
443,-4.54e+00,
444,-4.66e+00,
445,-4.54e+00,
446,-4.60e+00,
447,-4.54e+00,
448,-4.56e+00,
449,-4.48e+00,
450,-4.56e+00,
451,-4.48e+00,
452,-4.56e+00,
453,-4.44e+00,
454,-4.48e+00,
455,-4.60e+00,
456,-4.54e+00,
457,-4.64e+00,
458,-4.58e+00,
459,-4.70e+00,
460,-4.64e+00,
461,-4.76e+00,
462,-4.70e+00,
463,-4.82e+00,
464,-4.74e+00,
465,-4.86e+00,
466,-4.74e+00,
467,-4.86e+00,
468,-4.74e+00,
469,-4.86e+00,
470,-4.82e+00,
471,-4.70e+00,
472,-4.76e+00,
473,-4.64e+00,
474,-4.64e+00,
475,-4.72e+00,
476,-4.72e+00,
477,-4.58e+00,
478,-4.70e+00,
479,-4.58e+00,
480,-4.58e+00,
481,-4.72e+00,
482,-4.60e+00,
483,-4.72e+00,
484,-4.64e+00,
485,-4.76e+00,
486,-4.70e+00,
487,-4.82e+00,
488,-4.74e+00,
489,-4.86e+00,
490,-4.70e+00,
491,-4.96e+00,
492,-5.02e+00,
493,-4.70e+00,
494,-4.86e+00,
495,-4.74e+00,
496,-4.82e+00,
497,-4.70e+00,
498,-4.76e+00,
499,-4.64e+00,
500,-4.72e+00,
501,-4.60e+00,
502,-4.66e+00,
503,-4.54e+00,
504,-4.66e+00,
505,-4.54e+00,
506,-4.60e+00,
507,-4.54e+00,
508,-4.54e+00,
509,-4.66e+00,
510,-4.76e+00,
511,-4.54e+00,
512,-4.54e+00,
513,-4.80e+00,
514,-4.76e+00,
515,-4.60e+00,
516,-4.76e+00,
517,-4.64e+00,
518,-4.76e+00,
519,-4.64e+00,
520,-4.72e+00,
521,-4.60e+00,
522,-4.66e+00,
523,-4.58e+00,
524,-4.66e+00,
525,-4.50e+00,
526,-4.56e+00,
527,-4.44e+00,
528,-4.50e+00,
529,-4.38e+00,
530,-4.38e+00,
531,-4.46e+00,
532,-4.46e+00,
533,-4.34e+00,
534,-4.40e+00,
535,-4.34e+00,
536,-4.34e+00,
537,-4.46e+00,
538,-4.38e+00,
539,-4.50e+00,
540,-4.38e+00,
541,-4.50e+00,
542,-4.44e+00,
543,-4.50e+00,
544,-4.50e+00,
545,-4.38e+00,
546,-4.38e+00,
547,-4.50e+00,
548,-4.44e+00,
549,-4.30e+00,
550,-4.36e+00,
551,-4.28e+00,
552,-4.36e+00,
553,-4.22e+00,
554,-4.24e+00,
555,-4.18e+00,
556,-4.12e+00,
557,-4.24e+00,
558,-4.20e+00,
559,-4.12e+00,
560,-4.12e+00,
561,-4.20e+00,
562,-4.08e+00,
563,-4.30e+00,
564,-4.08e+00,
565,-4.24e+00,
566,-4.18e+00,
567,-4.24e+00,
568,-4.24e+00,
569,-4.18e+00,
570,-4.24e+00,
571,-4.18e+00,
572,-4.24e+00,
573,-4.12e+00,
574,-4.24e+00,
575,-4.12e+00,
576,-4.20e+00,
577,-4.02e+00,
578,-4.14e+00,
579,-4.02e+00,
580,-4.10e+00,
581,-3.98e+00,
582,-4.04e+00,
583,-3.92e+00,
584,-4.00e+00,
585,-3.92e+00,
586,-3.92e+00,
587,-4.04e+00,
588,-4.04e+00,
589,-3.92e+00,
590,-3.98e+00,
591,-4.04e+00,
592,-3.98e+00,
593,-4.10e+00,
594,-4.10e+00,
595,-4.02e+00,
596,-4.10e+00,
597,-4.02e+00,
598,-4.10e+00,
599,-4.02e+00,
600,-4.10e+00,
601,-3.98e+00,
602,-4.04e+00,
603,-3.98e+00,
604,-4.04e+00,
605,-3.92e+00,
606,-3.72e+00,
607,-4.08e+00,
608,-3.72e+00,
609,-4.04e+00,
610,-3.98e+00,
611,-3.82e+00,
612,-3.94e+00,
613,-3.82e+00,
614,-3.88e+00,
615,-4.00e+00,
616,-3.92e+00,
617,-4.02e+00,
618,-3.92e+00,
619,-4.04e+00,
620,-3.98e+00,
621,-4.10e+00,
622,-4.02e+00,
623,-4.10e+00,
624,-4.10e+00,
625,-4.02e+00,
626,-4.10e+00,
627,-4.02e+00,
628,-4.10e+00,
629,-3.98e+00,
630,-4.04e+00,
631,-3.98e+00,
632,-4.04e+00,
633,-3.94e+00,
634,-4.04e+00,
635,-3.92e+00,
636,-3.92e+00,
637,-4.04e+00,
638,-3.98e+00,
639,-4.04e+00,
640,-3.98e+00,
641,-4.08e+00,
642,-4.02e+00,
643,-4.10e+00,
644,-4.14e+00,
645,-4.04e+00,
646,-4.08e+00,
647,-4.20e+00,
648,-4.12e+00,
649,-4.30e+00,
650,-4.30e+00,
651,-4.12e+00,
652,-4.20e+00,
653,-4.12e+00,
654,-4.20e+00,
655,-4.12e+00,
656,-4.12e+00,
657,-4.24e+00,
658,-4.24e+00,
659,-4.12e+00,
660,-4.12e+00,
661,-4.24e+00,
662,-4.18e+00,
663,-4.24e+00,
664,-4.28e+00,
665,-4.14e+00,
666,-4.14e+00,
667,-4.30e+00,
668,-4.24e+00,
669,-4.36e+00,
670,-4.28e+00,
671,-4.40e+00,
672,-4.40e+00,
673,-4.28e+00,
674,-4.40e+00,
675,-4.28e+00,
676,-4.34e+00,
677,-4.44e+00,
678,-4.38e+00,
679,-4.46e+00,
680,-4.46e+00,
681,-4.38e+00,
682,-4.46e+00,
683,-4.34e+00,
684,-4.40e+00,
685,-4.28e+00,
686,-4.40e+00,
687,-4.34e+00,
688,-4.40e+00,
689,-4.34e+00,
690,-4.40e+00,
691,-4.34e+00,
692,-4.46e+00,
693,-4.34e+00,
694,-4.38e+00,
695,-4.50e+00,
696,-4.44e+00,
697,-4.50e+00,
698,-4.48e+00,
699,-4.56e+00,
700,-4.48e+00,
701,-4.56e+00,
702,-4.60e+00,
703,-4.48e+00,
704,-4.60e+00,
705,-4.50e+00,
706,-4.56e+00,
707,-4.48e+00,
708,-4.56e+00,
709,-4.48e+00,
710,-4.56e+00,
711,-4.44e+00,
712,-4.56e+00,
713,-4.44e+00,
714,-4.56e+00,
715,-4.40e+00,
716,-4.44e+00,
717,-4.56e+00,
718,-4.56e+00,
719,-4.44e+00,
720,-4.56e+00,
721,-4.44e+00,
722,-4.48e+00,
723,-4.60e+00,
724,-4.54e+00,
725,-4.60e+00,
726,-4.54e+00,
727,-4.66e+00,
728,-4.66e+00,
729,-4.54e+00,
730,-4.66e+00,
731,-4.54e+00,
732,-4.66e+00,
733,-4.50e+00,
734,-4.60e+00,
735,-4.48e+00,
736,-4.48e+00,
737,-4.60e+00,
738,-4.56e+00,
739,-4.48e+00,
740,-4.60e+00,
741,-4.30e+00,
742,-4.64e+00,
743,-4.34e+00,
744,-4.38e+00,
745,-4.56e+00,
746,-4.50e+00,
747,-4.44e+00,
748,-4.56e+00,
749,-4.44e+00,
750,-4.56e+00,
751,-4.44e+00,
752,-4.56e+00,
753,-4.48e+00,
754,-4.56e+00,
755,-4.44e+00,
756,-4.56e+00,
757,-4.44e+00,
758,-4.54e+00,
759,-4.44e+00,
760,-4.34e+00,
761,-4.56e+00,
762,-4.56e+00,
763,-4.28e+00,
764,-4.50e+00,
765,-4.34e+00,
766,-4.40e+00,
767,-4.34e+00,
768,-4.24e+00,
769,-4.46e+00,
770,-4.40e+00,
771,-4.28e+00,
772,-4.28e+00,
773,-4.40e+00,
774,-4.34e+00,
775,-4.40e+00,
776,-4.40e+00,
777,-4.28e+00,
778,-4.34e+00,
779,-4.40e+00,
780,-4.40e+00,
781,-4.30e+00,
782,-4.36e+00,
783,-4.28e+00,
784,-4.28e+00,
785,-4.36e+00,
786,-4.36e+00,
787,-4.24e+00,
788,-4.30e+00,
789,-4.18e+00,
790,-4.24e+00,
791,-4.14e+00,
792,-4.24e+00,
793,-4.12e+00,
794,-4.20e+00,
795,-4.12e+00,
796,-4.20e+00,
797,-4.12e+00,
798,-4.20e+00,
799,-4.12e+00,
800,-4.20e+00,
801,-4.12e+00,
802,-4.12e+00,
803,-4.20e+00,
804,-4.20e+00,
805,-4.12e+00,
806,-4.12e+00,
807,-4.20e+00,
808,-4.20e+00,
809,-4.10e+00,
810,-4.14e+00,
811,-3.98e+00,
812,-3.86e+00,
813,-4.20e+00,
814,-3.88e+00,
815,-4.14e+00,
816,-4.04e+00,
817,-3.92e+00,
818,-4.04e+00,
819,-3.92e+00,
820,-4.00e+00,
821,-3.88e+00,
822,-3.92e+00,
823,-4.00e+00,
824,-4.00e+00,
825,-3.88e+00,
826,-3.88e+00,
827,-4.00e+00,
828,-4.00e+00,
829,-3.92e+00,
830,-3.92e+00,
831,-4.00e+00,
832,-3.92e+00,
833,-4.00e+00,
834,-3.92e+00,
835,-4.00e+00,
836,-3.92e+00,
837,-4.00e+00,
838,-3.98e+00,
839,-3.88e+00,
840,-3.86e+00,
841,-3.94e+00,
842,-3.94e+00,
843,-3.86e+00,
844,-3.82e+00,
845,-3.92e+00,
846,-3.88e+00,
847,-3.82e+00,
848,-3.88e+00,
849,-3.82e+00,
850,-3.82e+00,
851,-3.94e+00,
852,-3.82e+00,
853,-3.94e+00,
854,-3.86e+00,
855,-3.94e+00,
856,-3.88e+00,
857,-3.98e+00,
858,-3.88e+00,
859,-3.98e+00,
860,-3.88e+00,
861,-3.98e+00,
862,-3.88e+00,
863,-4.00e+00,
864,-3.88e+00,
865,-4.00e+00,
866,-3.94e+00,
867,-3.86e+00,
868,-3.94e+00,
869,-3.86e+00,
870,-3.94e+00,
871,-3.86e+00,
872,-3.86e+00,
873,-3.94e+00,
874,-3.94e+00,
875,-3.86e+00,
876,-3.86e+00,
877,-3.98e+00,
878,-3.92e+00,
879,-4.00e+00,
880,-3.92e+00,
881,-4.00e+00,
882,-3.92e+00,
883,-4.04e+00,
884,-4.04e+00,
885,-3.98e+00,
886,-3.98e+00,
887,-4.08e+00,
888,-4.10e+00,
889,-3.98e+00,
890,-3.98e+00,
891,-4.10e+00,
892,-3.98e+00,
893,-4.10e+00,
894,-4.04e+00,
895,-3.98e+00,
896,-3.98e+00,
897,-4.08e+00,
898,-3.98e+00,
899,-4.10e+00,
900,-4.10e+00,
901,-3.98e+00,
902,-4.02e+00,
903,-4.10e+00,
904,-4.02e+00,
905,-4.14e+00,
906,-4.08e+00,
907,-4.20e+00,
908,-4.28e+00,
909,-4.12e+00,
910,-4.14e+00,
911,-4.08e+00,
912,-4.08e+00,
913,-4.20e+00,
914,-4.08e+00,
915,-4.24e+00,
916,-4.24e+00,
917,-4.12e+00,
918,-4.24e+00,
919,-4.14e+00,
920,-4.24e+00,
921,-4.14e+00,
922,-4.18e+00,
923,-4.24e+00,
924,-4.24e+00,
925,-4.12e+00,
926,-4.18e+00,
927,-4.30e+00,
928,-4.18e+00,
929,-4.30e+00,
930,-4.30e+00,
931,-4.18e+00,
932,-4.30e+00,
933,-4.18e+00,
934,-4.22e+00,
935,-4.30e+00,
936,-4.24e+00,
937,-4.40e+00,
938,-4.34e+00,
939,-4.40e+00,
940,-4.40e+00,
941,-4.28e+00,
942,-4.24e+00,
943,-4.36e+00,
944,-4.28e+00,
945,-4.40e+00,
946,-4.40e+00,
947,-4.28e+00,
948,-4.36e+00,
949,-4.28e+00,
950,-4.28e+00,
951,-4.38e+00,
952,-4.40e+00,
953,-4.28e+00,
954,-4.40e+00,
955,-4.28e+00,
956,-4.34e+00,
957,-4.40e+00,
958,-4.34e+00,
959,-4.46e+00,
960,-4.46e+00,
961,-4.34e+00,
962,-4.38e+00,
963,-4.46e+00,
964,-4.38e+00,
965,-4.50e+00,
966,-4.38e+00,
967,-4.50e+00,
968,-4.38e+00,
969,-4.50e+00,
970,-4.38e+00,
971,-4.46e+00,
972,-4.46e+00,
973,-4.34e+00,
974,-4.50e+00,
975,-4.24e+00,
976,-4.46e+00,
977,-4.28e+00,
978,-4.40e+00,
979,-4.34e+00,
980,-4.34e+00,
981,-4.44e+00,
982,-4.34e+00,
983,-4.44e+00,
984,-4.46e+00,
985,-4.34e+00,
986,-4.46e+00,
987,-4.34e+00,
988,-4.34e+00,
989,-4.46e+00,
990,-4.22e+00,
991,-4.56e+00,
992,-4.28e+00,
993,-4.56e+00,
994,-4.34e+00,
995,-4.46e+00,
996,-4.34e+00,
997,-4.40e+00,
998,-4.40e+00,
999,-4.28e+00,
1000,-4.28e+00,
1001,-4.40e+00,
1002,-4.28e+00,
1003,-4.36e+00,
1004,-4.24e+00,
1005,-4.36e+00,
1006,-4.34e+00,
1007,-4.22e+00,
1008,-4.24e+00,
1009,-4.34e+00,
1010,-4.18e+00,
1011,-4.40e+00,
1012,-4.18e+00,
1013,-4.40e+00,
1014,-4.36e+00,
1015,-4.24e+00,
1016,-4.34e+00,
1017,-4.12e+00,
1018,-3.98e+00,
1019,-4.40e+00,
1020,-4.02e+00,
1021,-4.34e+00,
1022,-4.12e+00,
1023,-4.24e+00,
1024,-4.08e+00,
1025,-4.20e+00,
1026,-4.08e+00,
1027,-4.20e+00,
1028,-4.14e+00,
1029,-4.02e+00,
1030,-4.10e+00,
1031,-4.02e+00,
1032,-4.02e+00,
1033,-4.10e+00,
1034,-4.10e+00,
1035,-3.98e+00,
1036,-4.10e+00,
1037,-3.98e+00,
1038,-4.04e+00,
1039,-3.98e+00,
1040,-4.04e+00,
1041,-3.98e+00,
1042,-4.04e+00,
1043,-3.98e+00,
1044,-3.98e+00,
1045,-4.04e+00,
1046,-3.98e+00,
1047,-4.04e+00,
1048,-3.92e+00,
1049,-4.04e+00,
1050,-4.00e+00,
1051,-3.88e+00,
1052,-3.94e+00,
1053,-3.88e+00,
1054,-3.94e+00,
1055,-3.86e+00,
1056,-3.94e+00,
1057,-3.86e+00,
1058,-3.94e+00,
1059,-3.82e+00,
1060,-3.82e+00,
1061,-3.94e+00,
1062,-3.92e+00,
1063,-3.82e+00,
1064,-3.94e+00,
1065,-3.82e+00,
1066,-3.94e+00,
1067,-3.82e+00,
1068,-3.94e+00,
1069,-3.82e+00,
1070,-3.94e+00,
1071,-3.82e+00,
1072,-3.88e+00,
1073,-3.82e+00,
1074,-3.88e+00,
1075,-3.82e+00,
1076,-3.88e+00,
1077,-3.78e+00,
1078,-3.88e+00,
1079,-3.76e+00,
1080,-3.84e+00,
1081,-3.76e+00,
1082,-3.84e+00,
1083,-3.76e+00,
1084,-3.84e+00,
1085,-3.76e+00,
1086,-3.76e+00,
1087,-3.84e+00,
1088,-3.76e+00,
1089,-3.84e+00,
1090,-3.84e+00,
1091,-3.76e+00,
1092,-3.84e+00,
1093,-3.76e+00,
1094,-3.88e+00,
1095,-3.76e+00,
1096,-3.76e+00,
1097,-3.88e+00,
1098,-3.88e+00,
1099,-3.76e+00,
1100,-3.84e+00,
1101,-3.76e+00,
1102,-3.84e+00,
1103,-3.76e+00,
1104,-3.76e+00,
1105,-3.86e+00,
1106,-3.84e+00,
1107,-3.76e+00,
1108,-3.84e+00,
1109,-3.76e+00,
1110,-3.78e+00,
1111,-3.88e+00,
1112,-3.88e+00,
1113,-3.76e+00,
1114,-3.82e+00,
1115,-3.88e+00,
1116,-3.88e+00,
1117,-3.82e+00,
1118,-3.82e+00,
1119,-3.94e+00,
1120,-3.82e+00,
1121,-3.94e+00,
1122,-3.94e+00,
1123,-3.86e+00,
1124,-3.94e+00,
1125,-3.86e+00,
1126,-3.94e+00,
1127,-3.86e+00,
1128,-3.94e+00,
1129,-3.86e+00,
1130,-3.94e+00,
1131,-3.86e+00,
1132,-3.94e+00,
1133,-3.86e+00,
1134,-3.86e+00,
1135,-3.94e+00,
1136,-3.88e+00,
1137,-3.98e+00,
1138,-3.92e+00,
1139,-3.98e+00,
1140,-4.00e+00,
1141,-3.88e+00,
1142,-3.92e+00,
1143,-4.00e+00,
1144,-4.04e+00,
1145,-3.92e+00,
1146,-3.98e+00,
1147,-4.04e+00,
1148,-4.04e+00,
1149,-3.98e+00,
1150,-3.98e+00,
1151,-4.10e+00,
1152,-4.00e+00,
1153,-4.10e+00,
1154,-4.02e+00,
1155,-4.10e+00,
1156,-4.10e+00,
1157,-4.00e+00,
1158,-4.10e+00,
1159,-4.02e+00,
1160,-4.10e+00,
1161,-4.02e+00,
1162,-4.02e+00,
1163,-4.14e+00,
1164,-4.08e+00,
1165,-4.20e+00,
1166,-4.20e+00,
1167,-4.02e+00,
1168,-4.02e+00,
1169,-4.14e+00,
1170,-4.08e+00,
1171,-4.14e+00,
1172,-4.08e+00,
1173,-4.20e+00,
1174,-4.20e+00,
1175,-4.12e+00,
1176,-4.12e+00,
1177,-4.24e+00,
1178,-4.18e+00,
1179,-4.24e+00,
1180,-4.30e+00,
1181,-4.08e+00,
1182,-4.20e+00,
1183,-4.08e+00,
1184,-4.24e+00,
1185,-4.12e+00,
1186,-4.18e+00,
1187,-4.24e+00,
1188,-4.24e+00,
1189,-4.12e+00,
1190,-4.08e+00,
1191,-4.20e+00,
1192,-4.08e+00,
1193,-4.24e+00,
1194,-4.24e+00,
1195,-4.18e+00,
1196,-4.24e+00,
1197,-4.18e+00,
1198,-4.24e+00,
1199,-4.14e+00,
