Thesis/Experiment_15.csv

X,CH1,Start,Increment,
Sequence,Volt,-1.600000e-04,1.000000e-05
0,9.23e+00,
1,9.30e+00,
2,9.23e+00,
3,9.28e+00,
4,9.29e+00,
5,9.22e+00,
6,9.29e+00,
7,9.22e+00,
8,9.28e+00,
9,9.23e+00,
10,9.30e+00,
11,9.22e+00,
12,9.23e+00,
13,9.28e+00,
14,9.28e+00,
15,8.25e+00,
16,9.41e+00,
17,8.25e+00,
18,8.25e+00,
19,9.31e+00,
20,8.25e+00,
21,9.10e+00,
22,9.26e+00,
23,8.25e+00,
24,9.32e+00,
25,8.25e+00,
26,8.25e+00,
27,9.24e+00,
28,8.25e+00,
29,9.35e+00,
30,8.25e+00,
31,9.05e+00,
32,1.03e+01,
33,8.25e+00,
34,8.25e+00,
35,1.02e+01,
36,8.37e+00,
37,9.96e+00,
38,8.46e+00,
39,9.88e+00,
40,9.89e+00,
41,8.60e+00,
42,9.74e+00,
43,8.66e+00,
44,9.68e+00,
45,8.82e+00,
46,8.79e+00,
47,9.60e+00,
48,8.82e+00,
49,9.54e+00,
50,9.48e+00,
51,8.91e+00,
52,9.49e+00,
53,8.93e+00,
54,9.43e+00,
55,8.99e+00,
56,9.02e+00,
57,9.41e+00,
58,9.02e+00,
59,9.36e+00,
60,9.04e+00,
61,9.35e+00,
62,9.36e+00,
63,9.06e+00,
64,9.32e+00,
65,9.07e+00,
66,9.32e+00,
67,9.07e+00,
68,9.10e+00,
69,9.29e+00,
70,9.10e+00,
71,9.28e+00,
72,9.11e+00,
73,9.27e+00,
74,9.27e+00,
75,9.11e+00,
76,9.27e+00,
77,9.13e+00,
78,9.26e+00,
79,9.13e+00,
80,9.12e+00,
81,9.26e+00,
82,9.14e+00,
83,9.25e+00,
84,9.25e+00,
85,9.13e+00,
86,9.25e+00,
87,9.14e+00,
88,9.25e+00,
89,9.14e+00,
90,9.14e+00,
91,9.24e+00,
92,9.14e+00,
93,9.24e+00,
94,9.14e+00,
95,9.23e+00,
96,9.23e+00,
97,9.14e+00,
98,9.23e+00,
99,9.15e+00,
100,9.15e+00,
101,9.22e+00,
102,9.15e+00,
103,9.23e+00,
104,9.15e+00,
105,9.22e+00,
106,9.15e+00,
107,9.23e+00,
108,9.22e+00,
109,9.15e+00,
110,9.22e+00,
111,9.15e+00,
112,9.16e+00,
113,9.22e+00,
114,9.15e+00,
115,9.22e+00,
116,9.21e+00,
117,9.16e+00,
118,9.21e+00,
119,9.15e+00,
120,9.22e+00,
121,9.15e+00,
122,9.16e+00,
123,9.22e+00,
124,9.15e+00,
125,9.21e+00,
126,9.15e+00,
127,9.22e+00,
128,9.21e+00,
129,9.15e+00,
130,9.22e+00,
131,9.15e+00,
132,9.21e+00,
133,9.14e+00,
134,9.22e+00,
135,9.15e+00,
136,9.15e+00,
137,9.21e+00,
138,9.21e+00,
139,9.15e+00,
140,9.15e+00,
141,9.21e+00,
142,9.21e+00,
143,9.15e+00,
144,9.21e+00,
145,9.16e+00,
146,9.15e+00,
147,9.21e+00,
148,9.15e+00,
149,9.21e+00,
150,9.15e+00,
151,9.21e+00,
152,9.21e+00,
153,9.15e+00,
154,9.21e+00,
155,9.15e+00,
156,9.22e+00,
157,9.14e+00,
158,9.15e+00,
159,9.21e+00,
160,9.15e+00,
161,9.21e+00,
162,9.15e+00,
163,9.21e+00,
164,9.21e+00,
165,9.15e+00,
166,9.15e+00,
167,9.21e+00,
168,9.15e+00,
169,9.21e+00,
170,9.15e+00,
171,9.22e+00,
172,9.15e+00,
173,9.21e+00,
174,9.21e+00,
175,9.15e+00,
176,9.15e+00,
177,9.21e+00,
178,9.20e+00,
179,9.15e+00,
180,9.21e+00,
181,9.15e+00,
182,9.21e+00,
183,9.15e+00,
184,9.21e+00,
185,9.15e+00,
186,9.15e+00,
187,9.22e+00,
188,9.15e+00,
189,9.21e+00,
190,9.21e+00,
191,9.14e+00,
192,9.20e+00,
193,9.15e+00,
194,9.21e+00,
195,9.15e+00,
196,9.22e+00,
197,9.14e+00,
198,9.15e+00,
199,9.21e+00,
200,9.21e+00,
201,9.15e+00,
202,9.21e+00,
203,9.15e+00,
204,9.21e+00,
205,9.16e+00,
206,9.15e+00,
207,9.22e+00,
208,9.22e+00,
209,9.15e+00,
210,9.22e+00,
211,9.15e+00,
212,9.21e+00,
213,9.16e+00,
214,9.16e+00,
215,9.21e+00,
216,9.21e+00,
217,9.15e+00,
218,9.16e+00,
219,9.22e+00,
220,9.21e+00,
221,9.16e+00,
222,9.22e+00,
223,9.16e+00,
224,9.21e+00,
225,9.15e+00,
226,9.16e+00,
227,9.22e+00,
228,9.16e+00,
229,9.22e+00,
230,9.21e+00,
231,9.15e+00,
232,9.16e+00,
233,9.22e+00,
234,9.21e+00,
235,9.14e+00,
236,9.21e+00,
237,9.15e+00,
238,9.16e+00,
239,9.22e+00,
240,9.22e+00,
241,9.16e+00,
242,9.22e+00,
243,9.16e+00,
244,9.22e+00,
245,9.16e+00,
246,9.15e+00,
247,9.23e+00,
248,9.17e+00,
249,9.22e+00,
250,9.22e+00,
251,9.16e+00,
252,9.22e+00,
253,9.16e+00,
254,9.17e+00,
255,9.22e+00,
256,9.17e+00,
257,9.22e+00,
258,9.17e+00,
259,9.22e+00,
260,9.22e+00,
261,9.15e+00,
262,9.22e+00,
263,9.17e+00,
264,9.22e+00,
265,9.17e+00,
266,9.17e+00,
267,9.22e+00,
268,9.22e+00,
269,9.17e+00,
270,9.17e+00,
271,9.23e+00,
272,9.17e+00,
273,9.23e+00,
274,9.22e+00,
275,9.17e+00,
276,9.17e+00,
277,9.22e+00,
278,9.22e+00,
279,9.17e+00,
280,9.18e+00,
281,9.22e+00,
282,9.22e+00,
283,9.17e+00,
284,9.17e+00,
285,9.22e+00,
286,9.18e+00,
287,9.23e+00,
288,9.18e+00,
289,9.22e+00,
290,9.18e+00,
291,9.22e+00,
292,9.18e+00,
293,9.22e+00,
294,9.18e+00,
295,9.23e+00,
296,9.22e+00,
297,9.17e+00,
298,9.22e+00,
299,9.18e+00,
300,9.23e+00,
301,9.18e+00,
302,9.18e+00,
303,9.23e+00,
304,9.24e+00,
305,9.17e+00,
306,9.23e+00,
307,9.17e+00,
308,9.23e+00,
309,9.18e+00,
310,9.25e+00,
311,9.18e+00,
312,9.18e+00,
313,9.23e+00,
314,9.23e+00,
315,9.18e+00,
316,9.18e+00,
317,9.24e+00,
318,9.18e+00,
319,9.23e+00,
320,9.18e+00,
321,9.24e+00,
322,9.23e+00,
323,9.18e+00,
324,9.24e+00,
325,9.18e+00,
326,9.18e+00,
327,9.24e+00,
328,9.23e+00,
329,9.18e+00,
330,9.18e+00,
331,9.24e+00,
332,9.25e+00,
333,9.18e+00,
334,9.18e+00,
335,9.25e+00,
336,9.24e+00,
337,9.18e+00,
338,9.24e+00,
339,9.18e+00,
340,9.24e+00,
341,9.18e+00,
342,9.18e+00,
343,9.24e+00,
344,9.24e+00,
345,9.19e+00,
346,9.19e+00,
347,9.24e+00,
348,9.19e+00,
349,9.24e+00,
350,9.19e+00,
351,9.25e+00,
352,9.24e+00,
353,9.18e+00,
354,9.24e+00,
355,9.19e+00,
356,9.24e+00,
357,9.19e+00,
358,9.19e+00,
359,9.26e+00,
360,9.25e+00,
361,9.19e+00,
362,9.19e+00,
363,9.25e+00,
364,9.19e+00,
365,9.26e+00,
366,9.19e+00,
367,9.25e+00,
368,9.19e+00,
369,9.25e+00,
370,9.19e+00,
371,9.25e+00,
372,9.19e+00,
373,9.25e+00,
374,9.25e+00,
375,9.20e+00,
376,9.20e+00,
377,9.25e+00,
378,9.25e+00,
379,9.19e+00,
380,9.20e+00,
381,9.26e+00,
382,9.20e+00,
383,9.26e+00,
384,9.20e+00,
385,9.26e+00,
386,9.20e+00,
387,9.26e+00,
388,9.25e+00,
389,9.20e+00,
390,9.25e+00,
391,9.20e+00,
392,9.26e+00,
393,9.19e+00,
394,9.20e+00,
395,9.26e+00,
396,9.26e+00,
397,9.21e+00,
398,9.20e+00,
399,9.26e+00,
400,9.20e+00,
401,9.26e+00,
402,9.20e+00,
403,9.26e+00,
404,9.26e+00,
405,9.20e+00,
406,9.26e+00,
407,9.20e+00,
408,9.26e+00,
409,9.20e+00,
410,9.20e+00,
411,9.26e+00,
412,9.19e+00,
413,9.27e+00,
414,9.20e+00,
415,9.27e+00,
416,9.27e+00,
417,9.20e+00,
418,9.27e+00,
419,9.19e+00,
420,9.28e+00,
421,9.20e+00,
422,9.19e+00,
423,9.27e+00,
424,9.19e+00,
425,9.27e+00,
426,9.27e+00,
427,9.19e+00,
428,9.27e+00,
429,9.20e+00,
430,9.21e+00,
431,9.28e+00,
432,9.20e+00,
433,9.27e+00,
434,9.21e+00,
435,9.27e+00,
436,9.27e+00,
437,9.21e+00,
438,9.27e+00,
439,9.21e+00,
440,9.21e+00,
441,9.26e+00,
442,9.21e+00,
443,9.27e+00,
444,9.26e+00,
445,9.21e+00,
446,9.27e+00,
447,9.21e+00,
448,9.28e+00,
449,9.20e+00,
450,9.21e+00,
451,9.29e+00,
452,9.19e+00,
453,9.29e+00,
454,9.28e+00,
455,9.19e+00,
456,9.30e+00,
457,9.19e+00,
458,9.30e+00,
459,9.19e+00,
460,9.19e+00,
461,9.30e+00,
462,9.18e+00,
463,9.30e+00,
464,9.30e+00,
465,9.18e+00,
466,9.30e+00,
467,9.17e+00,
468,9.18e+00,
469,9.31e+00,
470,9.18e+00,
471,9.32e+00,
472,9.17e+00,
473,9.31e+00,
474,9.32e+00,
475,9.17e+00,
476,9.32e+00,
477,9.17e+00,
478,9.18e+00,
479,9.33e+00,
480,9.16e+00,
481,9.34e+00,
482,9.16e+00,
483,9.34e+00,
484,9.34e+00,
485,9.15e+00,
486,9.34e+00,
487,9.15e+00,
488,9.34e+00,
489,9.16e+00,
490,9.15e+00,
491,9.34e+00,
492,9.17e+00,
493,9.34e+00,
494,9.31e+00,
495,9.18e+00,
496,9.32e+00,
497,9.18e+00,
498,9.31e+00,
499,9.19e+00,
500,9.20e+00,
501,9.30e+00,
502,9.20e+00,
503,9.30e+00,
504,9.21e+00,
505,9.30e+00,
506,9.21e+00,
507,9.31e+00,
508,9.31e+00,
509,9.20e+00,
510,9.31e+00,
511,9.18e+00,
512,9.32e+00,
513,9.20e+00,
514,9.19e+00,
515,9.34e+00,
516,9.18e+00,
517,9.33e+00,
518,9.33e+00,
519,9.18e+00,
520,9.34e+00,
521,9.18e+00,
522,9.34e+00,
523,9.18e+00,
524,9.18e+00,
525,9.34e+00,
526,9.18e+00,
527,9.33e+00,
528,9.19e+00,
529,9.31e+00,
530,9.32e+00,
531,9.19e+00,
532,9.32e+00,
533,9.20e+00,
534,9.21e+00,
535,9.32e+00,
536,9.20e+00,
537,9.31e+00,
538,9.20e+00,
539,9.31e+00,
540,9.30e+00,
541,9.20e+00,
542,9.31e+00,
543,9.21e+00,
544,9.31e+00,
545,9.21e+00,
546,9.31e+00,
547,9.20e+00,
548,9.20e+00,
549,9.31e+00,
550,9.20e+00,
551,9.31e+00,
552,9.30e+00,
553,9.20e+00,
554,9.31e+00,
555,9.20e+00,
556,9.31e+00,
557,9.22e+00,
558,9.21e+00,
559,9.31e+00,
560,9.20e+00,
561,9.31e+00,
562,9.20e+00,
563,9.30e+00,
564,9.31e+00,
565,9.21e+00,
566,9.30e+00,
567,9.21e+00,
568,9.30e+00,
569,9.22e+00,
570,9.22e+00,
571,9.30e+00,
572,9.22e+00,
573,9.30e+00,
574,9.30e+00,
575,9.22e+00,
576,9.30e+00,
577,9.22e+00,
578,9.30e+00,
579,9.22e+00,
580,9.23e+00,
581,9.30e+00,
582,9.23e+00,
583,9.30e+00,
584,9.29e+00,
585,9.23e+00,
586,9.30e+00,
587,9.23e+00,
588,9.23e+00,
589,9.29e+00,
590,9.24e+00,
591,9.30e+00,
592,9.23e+00,
593,9.30e+00,
594,9.30e+00,
595,9.22e+00,
596,9.30e+00,
597,9.23e+00,
598,9.24e+00,
599,9.30e+00,
600,9.23e+00,
601,9.30e+00,
602,9.23e+00,
603,9.30e+00,
604,9.30e+00,
605,9.23e+00,
606,9.30e+00,
607,9.23e+00,
608,9.30e+00,
609,9.23e+00,
610,9.23e+00,
611,9.30e+00,
612,9.23e+00,
613,9.30e+00,
614,9.23e+00,
615,9.30e+00,
616,9.30e+00,
617,9.23e+00,
618,9.30e+00,
619,9.23e+00,
620,9.30e+00,
621,9.23e+00,
622,9.23e+00,
623,9.30e+00,
624,9.23e+00,
625,9.30e+00,
626,9.23e+00,
627,9.30e+00,
628,9.30e+00,
629,9.23e+00,
630,9.30e+00,
631,9.23e+00,
632,9.30e+00,
633,9.23e+00,
634,9.30e+00,
635,9.23e+00,
636,9.23e+00,
637,9.30e+00,
638,9.24e+00,
639,9.30e+00,
640,9.30e+00,
641,9.23e+00,
642,9.30e+00,
643,9.24e+00,
644,9.30e+00,
645,9.24e+00,
646,9.30e+00,
647,9.22e+00,
648,9.24e+00,
649,9.30e+00,
650,9.24e+00,
651,9.30e+00,
652,9.30e+00,
653,9.22e+00,
654,9.30e+00,
655,9.22e+00,
656,9.30e+00,
657,9.24e+00,
658,9.30e+00,
659,9.23e+00,
660,9.24e+00,
661,9.30e+00,
662,9.23e+00,
663,9.31e+00,
664,9.30e+00,
665,9.24e+00,
666,9.24e+00,
667,9.31e+00,
668,9.30e+00,
669,9.24e+00,
670,9.24e+00,
671,9.30e+00,
672,9.24e+00,
673,9.30e+00,
674,9.23e+00,
675,9.30e+00,
676,9.23e+00,
677,9.31e+00,
678,9.30e+00,
679,9.23e+00,
680,9.31e+00,
681,9.24e+00,
682,9.32e+00,
683,9.24e+00,
684,9.24e+00,
685,9.30e+00,
686,9.24e+00,
687,9.31e+00,
688,9.30e+00,
689,9.23e+00,
690,9.31e+00,
691,9.23e+00,
692,9.30e+00,
693,9.23e+00,
694,9.31e+00,
695,9.23e+00,
696,9.24e+00,
697,9.30e+00,
698,9.23e+00,
699,9.30e+00,
700,9.30e+00,
701,9.23e+00,
702,9.30e+00,
703,9.24e+00,
704,9.24e+00,
705,9.30e+00,
706,9.30e+00,
707,9.23e+00,
708,9.24e+00,
709,9.30e+00,
710,9.24e+00,
711,9.30e+00,
712,9.30e+00,
713,9.23e+00,
714,9.30e+00,
715,9.22e+00,
716,9.30e+00,
717,9.22e+00,
718,9.23e+00,
719,9.30e+00,
720,9.24e+00,
721,9.30e+00,
722,9.30e+00,
723,9.22e+00,
724,9.30e+00,
725,9.23e+00,
726,9.30e+00,
727,9.24e+00,
728,9.30e+00,
729,9.24e+00,
730,9.30e+00,
731,9.23e+00,
732,9.30e+00,
733,9.23e+00,
734,9.30e+00,
735,9.24e+00,
736,9.30e+00,
737,9.24e+00,
738,9.24e+00,
739,9.30e+00,
740,9.24e+00,
741,9.30e+00,
742,9.24e+00,
743,9.30e+00,
744,9.30e+00,
745,9.24e+00,
746,9.30e+00,
747,9.23e+00,
748,9.30e+00,
749,9.24e+00,
750,9.30e+00,
751,9.23e+00,
752,9.24e+00,
753,9.30e+00,
754,9.24e+00,
755,9.30e+00,
756,9.29e+00,
757,9.24e+00,
758,9.29e+00,
759,9.25e+00,
760,9.24e+00,
761,9.30e+00,
762,9.30e+00,
763,9.24e+00,
764,9.30e+00,
765,9.23e+00,
766,9.30e+00,
767,9.23e+00,
768,9.23e+00,
769,9.30e+00,
770,9.30e+00,
771,9.23e+00,
772,9.30e+00,
773,9.22e+00,
774,9.24e+00,
775,9.30e+00,
776,9.30e+00,
777,9.24e+00,
778,9.24e+00,
779,9.30e+00,
780,9.24e+00,
781,9.30e+00,
782,9.24e+00,
783,9.30e+00,
784,9.23e+00,
785,9.30e+00,
786,9.30e+00,
787,9.24e+00,
788,9.24e+00,
789,9.30e+00,
790,9.24e+00,
791,9.30e+00,
792,9.23e+00,
793,9.30e+00,
794,9.23e+00,
795,9.30e+00,
796,9.30e+00,
797,9.23e+00,
798,9.30e+00,
799,9.22e+00,
800,9.23e+00,
801,9.30e+00,
802,9.23e+00,
803,9.30e+00,
804,9.22e+00,
805,9.30e+00,
806,9.30e+00,
807,9.22e+00,
808,9.31e+00,
809,9.22e+00,
810,9.23e+00,
811,9.30e+00,
812,9.22e+00,
813,9.31e+00,
814,9.21e+00,
815,9.31e+00,
816,9.31e+00,
817,9.21e+00,
818,9.31e+00,
819,9.22e+00,
820,9.32e+00,
821,9.22e+00,
822,9.22e+00,
823,9.31e+00,
824,9.21e+00,
825,9.32e+00,
826,9.22e+00,
827,9.31e+00,
828,9.31e+00,
829,9.22e+00,
830,9.32e+00,
831,9.22e+00,
832,9.22e+00,
833,9.32e+00,
834,9.22e+00,
835,9.32e+00,
836,9.22e+00,
837,9.31e+00,
838,9.31e+00,
839,9.22e+00,
840,9.31e+00,
841,9.22e+00,
842,9.23e+00,
843,9.30e+00,
844,9.22e+00,
845,9.30e+00,
846,9.23e+00,
847,9.31e+00,
848,9.30e+00,
849,9.22e+00,
850,9.31e+00,
851,9.23e+00,
852,9.23e+00,
853,9.30e+00,
854,9.23e+00,
855,9.31e+00,
856,9.30e+00,
857,9.23e+00,
858,9.30e+00,
859,9.22e+00,
860,9.32e+00,
861,9.22e+00,
862,9.22e+00,
863,9.32e+00,
864,9.22e+00,
865,9.31e+00,
866,9.22e+00,
867,9.31e+00,
868,9.31e+00,
869,9.21e+00,
870,9.32e+00,
871,9.22e+00,
872,9.22e+00,
873,9.32e+00,
874,9.21e+00,
875,9.32e+00,
876,9.22e+00,
877,9.32e+00,
878,9.31e+00,
879,9.21e+00,
880,9.31e+00,
881,9.21e+00,
882,9.32e+00,
883,9.21e+00,
884,9.21e+00,
885,9.33e+00,
886,9.22e+00,
887,9.31e+00,
888,9.22e+00,
889,9.30e+00,
890,9.31e+00,
891,9.22e+00,
892,9.30e+00,
893,9.22e+00,
894,9.22e+00,
895,9.30e+00,
896,9.22e+00,
897,9.30e+00,
898,9.22e+00,
899,9.30e+00,
900,9.30e+00,
901,9.22e+00,
902,9.30e+00,
903,9.22e+00,
904,9.30e+00,
905,9.22e+00,
906,9.22e+00,
907,9.30e+00,
908,9.22e+00,
909,9.30e+00,
910,9.20e+00,
911,9.30e+00,
912,9.30e+00,
913,9.21e+00,
914,9.30e+00,
915,9.22e+00,
916,9.30e+00,
917,9.21e+00,
918,9.21e+00,
919,9.30e+00,
920,9.22e+00,
921,9.30e+00,
922,9.30e+00,
923,9.21e+00,
924,9.30e+00,
925,9.22e+00,
926,9.30e+00,
927,9.22e+00,
928,9.22e+00,
929,9.30e+00,
930,9.22e+00,
931,9.30e+00,
932,9.29e+00,
933,9.22e+00,
934,9.30e+00,
935,9.22e+00,
936,9.30e+00,
937,9.22e+00,
938,9.30e+00,
939,9.22e+00,
940,9.23e+00,
941,9.30e+00,
942,9.22e+00,
943,9.30e+00,
944,9.23e+00,
945,9.30e+00,
946,9.30e+00,
947,9.22e+00,
948,9.30e+00,
949,9.22e+00,
950,9.22e+00,
951,9.30e+00,
952,9.22e+00,
953,9.30e+00,
954,9.29e+00,
955,9.22e+00,
956,9.30e+00,
957,9.22e+00,
958,9.30e+00,
959,9.22e+00,
960,9.23e+00,
961,9.30e+00,
962,9.22e+00,
963,9.30e+00,
964,9.22e+00,
965,9.30e+00,
966,9.30e+00,
967,9.22e+00,
968,9.30e+00,
969,9.22e+00,
970,9.22e+00,
971,9.30e+00,
972,9.22e+00,
973,9.30e+00,
974,9.22e+00,
975,9.30e+00,
976,9.30e+00,
977,9.22e+00,
978,9.30e+00,
979,9.22e+00,
980,9.30e+00,
981,9.22e+00,
982,9.22e+00,
983,9.30e+00,
984,9.22e+00,
985,9.30e+00,
986,9.29e+00,
987,9.22e+00,
988,9.30e+00,
989,9.23e+00,
990,9.23e+00,
991,9.29e+00,
992,9.23e+00,
993,9.29e+00,
994,9.22e+00,
995,9.30e+00,
996,9.23e+00,
997,9.30e+00,
998,9.29e+00,
999,9.23e+00,
1000,9.30e+00,
1001,9.22e+00,
1002,9.30e+00,
1003,9.22e+00,
1004,9.22e+00,
1005,9.30e+00,
1006,9.22e+00,
1007,9.30e+00,
1008,9.22e+00,
1009,9.30e+00,
1010,9.29e+00,
1011,9.22e+00,
1012,9.29e+00,
1013,9.22e+00,
1014,9.29e+00,
1015,9.22e+00,
1016,9.29e+00,
1017,9.22e+00,
1018,9.22e+00,
1019,9.29e+00,
1020,9.29e+00,
1021,9.22e+00,
1022,9.29e+00,
1023,9.22e+00,
1024,9.29e+00,
1025,9.22e+00,
1026,9.22e+00,
1027,9.30e+00,
1028,9.22e+00,
1029,9.29e+00,
1030,9.22e+00,
1031,9.29e+00,
1032,9.29e+00,
1033,9.22e+00,
1034,9.29e+00,
1035,9.22e+00,
1036,9.29e+00,
1037,9.22e+00,
1038,9.23e+00,
1039,9.29e+00,
1040,9.29e+00,
1041,9.22e+00,
1042,9.23e+00,
1043,9.29e+00,
1044,9.28e+00,
1045,9.22e+00,
1046,9.29e+00,
1047,9.22e+00,
1048,9.29e+00,
1049,9.22e+00,
1050,9.22e+00,
1051,9.29e+00,
1052,9.22e+00,
1053,9.29e+00,
1054,9.22e+00,
1055,9.29e+00,
1056,9.29e+00,
1057,9.22e+00,
1058,9.29e+00,
1059,9.22e+00,
1060,9.23e+00,
1061,9.29e+00,
1062,9.22e+00,
1063,9.29e+00,
1064,9.22e+00,
1065,9.30e+00,
1066,9.29e+00,
1067,9.22e+00,
1068,9.29e+00,
1069,9.22e+00,
1070,9.30e+00,
1071,9.22e+00,
1072,9.23e+00,
1073,9.30e+00,
1074,9.22e+00,
1075,9.29e+00,
1076,9.22e+00,
1077,9.29e+00,
1078,9.29e+00,
1079,9.22e+00,
1080,9.30e+00,
1081,9.22e+00,
1082,9.29e+00,
1083,9.22e+00,
1084,9.22e+00,
1085,9.29e+00,
1086,9.22e+00,
1087,9.30e+00,
1088,9.28e+00,
1089,9.22e+00,
1090,9.29e+00,
1091,9.22e+00,
1092,9.29e+00,
1093,9.22e+00,
1094,9.29e+00,
1095,9.22e+00,
1096,9.22e+00,
1097,9.29e+00,
1098,9.22e+00,
1099,9.28e+00,
1100,9.29e+00,
1101,9.22e+00,
1102,9.29e+00,
1103,9.22e+00,
1104,9.29e+00,
1105,9.22e+00,
1106,9.22e+00,
1107,9.29e+00,
1108,9.28e+00,
1109,9.22e+00,
1110,9.29e+00,
1111,9.22e+00,
1112,9.28e+00,
1113,9.22e+00,
1114,9.23e+00,
1115,9.30e+00,
1116,9.22e+00,
1117,9.28e+00,
1118,9.22e+00,
1119,9.28e+00,
1120,9.28e+00,
1121,9.22e+00,
1122,9.29e+00,
1123,9.22e+00,
1124,9.30e+00,
1125,9.22e+00,
1126,9.23e+00,
1127,9.29e+00,
1128,9.23e+00,
1129,9.28e+00,
1130,9.28e+00,
1131,9.22e+00,
1132,9.28e+00,
1133,9.22e+00,
1134,9.28e+00,
1135,9.22e+00,
1136,9.29e+00,
1137,9.22e+00,
1138,9.22e+00,
1139,9.28e+00,
1140,9.28e+00,
1141,9.22e+00,
1142,9.28e+00,
1143,9.22e+00,
1144,9.28e+00,
1145,9.23e+00,
1146,9.23e+00,
1147,9.28e+00,
1148,9.22e+00,
1149,9.28e+00,
1150,9.22e+00,
1151,9.28e+00,
1152,9.22e+00,
1153,9.29e+00,
1154,9.28e+00,
1155,9.22e+00,
1156,9.23e+00,
1157,9.30e+00,
1158,9.23e+00,
1159,9.28e+00,
1160,9.22e+00,
1161,9.29e+00,
1162,9.22e+00,
1163,9.28e+00,
1164,9.28e+00,
1165,9.22e+00,
1166,9.22e+00,
1167,9.29e+00,
1168,9.28e+00,
1169,9.22e+00,
1170,9.23e+00,
1171,9.29e+00,
1172,9.28e+00,
1173,9.22e+00,
1174,9.23e+00,
1175,9.30e+00,
1176,9.28e+00,
1177,9.22e+00,
1178,9.23e+00,
1179,9.28e+00,
1180,9.23e+00,
1181,9.28e+00,
1182,9.28e+00,
1183,9.22e+00,
1184,9.28e+00,
1185,9.22e+00,
1186,9.28e+00,
1187,9.22e+00,
1188,9.22e+00,
1189,9.28e+00,
1190,9.21e+00,
1191,9.28e+00,
1192,9.28e+00,
1193,9.22e+00,
1194,9.29e+00,
1195,9.22e+00,
1196,9.28e+00,
1197,9.22e+00,
1198,9.22e+00,
1199,9.28e+00,
